tb/tb_top.vcd
$date
	Mon Jul  6 13:01:17 2026
$end
$version
	Icarus Verilog
$end
$timescale
	1s
$end
$scope module tb_top $end
$var reg 1 ! clk $end
$var reg 1 " reset $end
$scope module uut $end
$var wire 1 ! clk $end
$var wire 1 " reset $end
$var wire 1 # zero $end
$var wire 32 $ wr_data [31:0] $end
$var wire 5 % rs2 [4:0] $end
$var wire 5 & rs1 [4:0] $end
$var wire 1 ' reg_write $end
$var wire 32 ( rd_data2 [31:0] $end
$var wire 32 ) rd_data1 [31:0] $end
$var wire 5 * rd [4:0] $end
$var wire 32 + pc_plus4 [31:0] $end
$var wire 32 , pc_next [31:0] $end
$var wire 32 - pc [31:0] $end
$var wire 1 . mem_write $end
$var wire 1 / mem_to_reg $end
$var wire 32 0 mem_rd_data [31:0] $end
$var wire 32 1 instr [31:0] $end
$var wire 32 2 imm [31:0] $end
$var wire 1 3 branch $end
$var wire 1 4 alu_src $end
$var wire 32 5 alu_result [31:0] $end
$var wire 4 6 alu_ctrl [3:0] $end
$var wire 32 7 alu_b [31:0] $end
$scope module alu_inst $end
$var wire 32 8 b [31:0] $end
$var wire 1 # zero $end
$var wire 4 9 alu_ctrl [3:0] $end
$var wire 32 : a [31:0] $end
$var reg 32 ; result [31:0] $end
$upscope $end
$scope module dec_inst $end
$var wire 1 4 alu_src $end
$var wire 1 ' reg_write $end
$var wire 5 < rs2 [4:0] $end
$var wire 5 = rs1 [4:0] $end
$var wire 5 > rd [4:0] $end
$var wire 7 ? opcode [6:0] $end
$var wire 1 . mem_write $end
$var wire 1 / mem_to_reg $end
$var wire 32 @ instr [31:0] $end
$var wire 32 A imm [31:0] $end
$var wire 1 B funct7_5 $end
$var wire 3 C funct3 [2:0] $end
$var wire 1 3 branch $end
$var wire 4 D alu_ctrl [3:0] $end
$upscope $end
$scope module dmem_inst $end
$var wire 32 E addr [31:0] $end
$var wire 1 ! clk $end
$var wire 32 F rd_data [31:0] $end
$var wire 1 . we $end
$var wire 32 G wr_data [31:0] $end
$upscope $end
$scope module imem_inst $end
$var wire 32 H instr [31:0] $end
$var wire 32 I addr [31:0] $end
$upscope $end
$scope module pc_inst $end
$var wire 1 ! clk $end
$var wire 32 J pc_next [31:0] $end
$var wire 1 " reset $end
$var reg 32 K pc [31:0] $end
$upscope $end
$scope module rf_inst $end
$var wire 1 ! clk $end
$var wire 5 L rd_addr1 [4:0] $end
$var wire 5 M rd_addr2 [4:0] $end
$var wire 1 ' we $end
$var wire 5 N wr_addr [4:0] $end
$var wire 32 O wr_data [31:0] $end
$var wire 32 P rd_data2 [31:0] $end
$var wire 32 Q rd_data1 [31:0] $end
$upscope $end
$upscope $end
$upscope $end
$enddefinitions $end
$comment Show the parameter values. $end
$dumpall
$end
#0
$dumpvars
bx Q
bx P
bx O
bx N
bx M
bx L
bx K
bx J
bx I
bx H
bx G
bx F
b0 E
b0xxx D
bx C
xB
bx A
bx @
bx ?
bx >
bx =
bx <
b0 ;
bx :
b0xxx 9
bx 8
bx 7
b0xxx 6
b0 5
x4
x3
bx 2
bx 1
bx 0
x/
x.
bx -
bx ,
bx +
bx *
bx )
bx (
x'
bx &
bx %
bx $
1#
1"
0!
$end
#5
0#
b1010 5
b1010 ;
b1010 E
b0 6
b0 9
b0 D
b1010 7
b1010 8
1'
14
b100 ,
b100 J
b1010 $
b1010 O
b1010 2
b1010 A
b0 )
b0 :
b0 Q
0B
b0 C
0.
0/
03
b10011 ?
b1010 %
b1010 <
b1010 M
b0 &
b0 =
b0 L
b1 *
b1 >
b1 N
b101000000000000010010011 1
b101000000000000010010011 @
b101000000000000010010011 H
b100 +
b0 -
b0 I
b0 K
1!
#10
0!
0"
#15
b10100 $
b10100 O
b10100 5
b10100 ;
b10100 E
b10100 7
b10100 8
b10100 2
b10100 A
b10100 %
b10100 <
b10100 M
b10 *
b10 >
b10 N
b1010000000000000100010011 1
b1010000000000000100010011 @
b1010000000000000100010011 H
b1000 ,
b1000 J
b1000 +
b100 -
b100 I
b100 K
1!
#20
0!
#25
b11110 $
b11110 O
b11110 5
b11110 ;
b11110 E
04
b10100 7
b10100 8
b10100 (
b10100 G
b10100 P
b10 2
b10 A
b1010 )
b1010 :
b1010 Q
b110011 ?
b10 %
b10 <
b10 M
b1 &
b1 =
b1 L
b11 *
b11 >
b11 N
b1000001000000110110011 1
b1000001000000110110011 @
b1000001000000110110011 H
b1100 ,
b1100 J
b1100 +
b1000 -
b1000 I
b1000 K
1!
#30
0!
#35
b11 $
b11 O
b11 5
b11 ;
b11 E
0'
b11 7
b11 8
b11110 (
b11110 G
b11110 P
14
b11 2
b11 A
b0 )
b0 :
b0 Q
b10 C
1.
b100011 ?
b11 %
b11 <
b11 M
b0 &
b0 =
b0 L
b0 *
b0 >
b0 N
b1100000010000000100011 1
b1100000010000000100011 @
b1100000010000000100011 H
b10000 ,
b10000 J
b10000 +
b1100 -
b1100 I
b1100 K
1!
#40
0!
#45
1#
b0 5
b0 ;
b0 E
b0 7
b0 8
1'
14
b11110 $
b11110 O
b0 2
b0 A
b0 (
b0 G
b0 P
0.
1/
b11 ?
b0 %
b0 <
b0 M
b100 *
b100 >
b100 N
b10001000000011 1
b10001000000011 @
b10001000000011 H
b10100 ,
b10100 J
b10100 +
b10000 -
b10000 I
b10000 K
b11110 0
b11110 F
1!
#50
0!
#55
04
0'
b0 $
b0 O
b0 C
0/
b0 ?
b0 *
b0 >
b0 N
b0 1
b0 @
b0 H
b11000 ,
b11000 J
b11000 +
b10100 -
b10100 I
b10100 K
1!
#60
0!
#65
1#
b0 5
b0 ;
b0 E
b0xxx 6
b0xxx 9
b0xxx D
bx 7
bx 8
x'
x4
b0xxxx0 $
b0xxxx0 O
bx 2
bx A
bx (
bx G
bx P
bx )
bx :
bx Q
xB
bx C
x.
x/
x3
bx ?
bx %
bx <
bx M
bx &
bx =
bx L
bx *
bx >
bx N
bx 1
bx @
bx H
bx ,
bx J
b11100 +
b11000 -
b11000 I
b11000 K
1!
#70
0!
#75
bx +
bx -
bx I
bx K
1!
